Time series translations from NAICS-based rollups • naicsmatch
…
33331N

c(“333311”, “333312”, “333319”)

ex_asm_ts2 <- ex_asm_ts %>%
  unnest(naics_set) %>%
  rename(naics_2007_set = naics_set)

ex_asm_ts3 <- ex_asm_ts2 %>%
  left_join(naics_2007_2012, by = c("naics_2007_set" = "naics_2007")) %>%
  rename(naics_2012_set = naics_2012)

ex_asm_ts3
#> # A tibble: 30 x 6
#>    naics_2007 naics_label_2007    year  vos09 naics_2007_set naics_2012_set
#>    <chr>      <chr>              <dbl>  <dbl> <chr>          <chr>         
#>  1 31181M     Bread and bakery ~  2009 3.56e7 311811         311811        
#>  2 31181M     Bread and bakery ~  2009 3.56e7 311812         311812        
#>  3 31181M     Bread and bakery ~  2009 3.56e7 311813         311813        
#>  4 31182M     Cookie, cracker, ~  2009 2.07e7 311821         311821        
#>  5 31182M     Cookie, cracker, ~  2009 2.07e7 311822         311824        
#>  6 31182M     Cookie, cracker, ~  2009 2.07e7 311823         311824        
#>  7 311830     Tortilla manufact~  2009 3.16e6 311830         311830        
#>  8 332114     Custom roll formi~  2009 5.97e6 332114         332114        
#>  9 332117     Powder metallurgy~  2009 1.32e6 332117         332117        
#> 10 33211N     Forging             2009 8.95e6 332111         332111        
#> # ... with 20 more rows
…
